<svg id="folder_icon" width="69" height="46" viewBox="0 0 69 46" fill="none" xmlns="http://www.w3.org/2000/svg">
<path d="M9 8C9 4.13401 12.134 1 16 1H22.5961C24.2738 1 25.909 1.52744 27.2705 2.50773L31.154 5.30381C32.6857 6.40663 34.5253 7 36.4127 7H52C55.866 7 59 10.134 59 14V27C59 30.866 55.866 34 52 34H16C12.134 34 9 30.866 9 27V8Z" fill="#0CC599"/>
<g filter="url(#filter0_d)">
<path d="M4.8143 23.4667C3.88053 19.1091 7.2024 15 11.6589 15H57.0346C61.5886 15 64.9301 19.2797 63.8256 23.6978L60.3256 37.6978C59.5465 40.8139 56.7466 43 53.5346 43H14.6589C11.3581 43 8.5059 40.6942 7.81429 37.4667L4.8143 23.4667Z" fill="#12D3A5"/>
</g>
<defs>
<filter id="filter0_d" x="0.65625" y="10" width="67.3818" height="36" filterUnits="userSpaceOnUse" color-interpolation-filters="sRGB">
<feFlood flood-opacity="0" result="BackgroundImageFix"/>
<feColorMatrix in="SourceAlpha" type="matrix" values="0 0 0 0 0 0 0 0 0 0 0 0 0 0 0 0 0 0 127 0"/>
<feOffset dy="-1"/>
<feGaussianBlur stdDeviation="2"/>
<feColorMatrix type="matrix" values="0 0 0 0 0 0 0 0 0 0 0 0 0 0 0 0 0 0 0.25 0"/>
<feBlend mode="normal" in2="BackgroundImageFix" result="effect1_dropShadow"/>
<feBlend mode="normal" in="SourceGraphic" in2="effect1_dropShadow" result="shape"/>
</filter>
</defs>
</svg>
